<?xml version="1.0" encoding="utf-8"?>
<!-- Generator: Adobe Illustrator 17.0.0, SVG Export Plug-In . SVG Version: 6.00 Build 0)  -->
<!DOCTYPE svg PUBLIC "-//W3C//DTD SVG 1.1//EN" "http://www.w3.org/Graphics/SVG/1.1/DTD/svg11.dtd">
<svg version="1.1" id="Calque_1" xmlns="http://www.w3.org/2000/svg" xmlns:xlink="http://www.w3.org/1999/xlink" x="0px" y="0px"
	 width="960px" height="327.273px" viewBox="0 0 960 327.273" enable-background="new 0 0 960 327.273" xml:space="preserve">
<text transform="matrix(1 0 0 1 109.4774 30.6817)" font-family="'MyriadPro-Regular'" font-size="24">Thread 1</text>
<text transform="matrix(1 0 0 1 554.2047 30.6818)" font-family="'MyriadPro-Regular'" font-size="24">Thread 2</text>
<text id="appear:1-" transform="matrix(1 0 0 1 92.2727 108.386)" font-family="'MyriadPro-Regular'" font-size="24">a.draw(1)</text>
<text id="appear:3-_2_" transform="matrix(1 0 0 1 545.4316 185.1355)" font-family="'MyriadPro-Regular'" font-size="24">a.draw(1)</text>
<text id="appear:2-" transform="matrix(1 0 0 1 114.4318 147.7269)" font-family="'MyriadPro-Regular'" font-size="24">if(balance &lt; x)</text>
<text id="appear:6-" transform="matrix(1 0 0 1 114.4316 299.9774)" font-family="'MyriadPro-Regular'" font-size="24">balance -= x;</text>
<text id="appear:4-_1_" transform="matrix(1 0 0 1 573.9313 219.7948)" font-family="'MyriadPro-Regular'" font-size="24">if(balance &lt; x)</text>
<text id="appear:5-" transform="matrix(1 0 0 1 573.9309 262.4766)" font-family="'MyriadPro-Regular'" font-size="24">balance -= x;</text>
<text id="appear:4-" transform="matrix(1 0 0 1 728.2492 219.7946)" font-family="'MyriadPro-Regular'" font-size="24">-&gt; false</text>
<text id="appear:2-_1_" transform="matrix(1 0 0 1 268.7268 147.7267)" font-family="'MyriadPro-Regular'" font-size="24">-&gt; false</text>
<rect id="appear:1" x="54.364" y="80.682" opacity="0.2" width="807.955" height="38.636"/>
<rect id="appear:2" x="54.364" y="119.318" opacity="0.2" width="807.955" height="38.636"/>
<rect id="appear:3" x="54.364" y="158.182" opacity="0.2" width="807.955" height="38.636"/>
<rect id="appear:4" x="54.364" y="196.818" opacity="0.2" width="807.955" height="38.636"/>
<rect id="appear:5" x="54.364" y="232.818" opacity="0.2" width="807.955" height="38.636"/>
<rect id="appear:6" x="54.364" y="270.318" opacity="0.2" width="807.955" height="38.636"/>
</svg>
