<?xml version="1.0" encoding="utf-8"?>
<!-- Generator: Adobe Illustrator 17.0.0, SVG Export Plug-In . SVG Version: 6.00 Build 0)  -->
<!DOCTYPE svg PUBLIC "-//W3C//DTD SVG 1.1//EN" "http://www.w3.org/Graphics/SVG/1.1/DTD/svg11.dtd">
<svg version="1.1"
	 id="Calque_1" xmlns:sodipodi="http://sodipodi.sourceforge.net/DTD/sodipodi-0.dtd" xmlns:inkscape="http://www.inkscape.org/namespaces/inkscape"
	 xmlns="http://www.w3.org/2000/svg" xmlns:xlink="http://www.w3.org/1999/xlink" x="0px" y="0px" width="500px" height="394.928px"
	 viewBox="0 0 500 394.928" enable-background="new 0 0 500 394.928" xml:space="preserve">
<text transform="matrix(1 0 0 1 223.9131 36.2318)" font-family="'MyriadPro-Regular'" font-size="24">Serveur</text>
<text transform="matrix(1 0 0 1 17.9711 370.1739)" fill="#253285" font-family="'MyriadPro-Regular'" font-size="24">Alice</text>
<text transform="matrix(1 0 0 1 443.3334 370.1737)" fill="#00893C" font-family="'MyriadPro-Regular'" font-size="24">Bob</text>
<rect x="9.783" y="339.13" opacity="0.1" fill="#253285" enable-background="new    " width="64.13" height="45.652"/>
<rect x="162.288" y="5.797" opacity="0.1" enable-background="new    " width="188.642" height="85.129"/>
<rect x="432.609" y="339.13" opacity="0.1" fill="#00893C" enable-background="new    " width="60.145" height="45.652"/>
<g id="appear:0_x2C_4_x2C_7">
	<g>
		<g>
			<path fill="#253285" d="M40.668,339.214c0.161-5.938,1.932-11.443,3.115-17.189c1.197-5.819,2.433-11.628,3.708-17.428
				c2.646-12.035,5.543-24.005,8.815-35.862c6.617-23.98,15.135-47.399,26.611-69.196c22.375-42.503,55.242-76.656,90.225-107.174
				c1.188-1.036-0.623-1.855-1.492-1.098c-33.961,29.627-65.287,62.41-88.087,102.862C59.87,236.167,49.29,284.63,39.223,332.03
				c-0.516,2.431-0.768,4.882-0.835,7.369C38.354,340.663,40.639,340.3,40.668,339.214L40.668,339.214z"/>
		</g>
	</g>
	<g>
		<g>
			<path fill="#253285" d="M173.081,91.142c-3.537-0.556-6.824-0.014-10.144,1.364c-1.467,0.609-0.13,1.466,0.9,1.039
				c2.576-1.069,5.127-1.488,7.873-1.056C172.445,92.604,174.368,91.345,173.081,91.142L173.081,91.142z"/>
		</g>
	</g>
	<g>
		<g>
			<path fill="#253285" d="M171.253,93.717c0,2.824,0,5.647,0,8.472c0,1.293,2.283,0.943,2.283-0.174c0-2.824,0-5.647,0-8.472
				C173.537,92.251,171.253,92.602,171.253,93.717L171.253,93.717z"/>
		</g>
	</g>
</g>
<g id="appear:0_x2C_5_x2C_8">
	<g>
		<g>
			<path fill="#253285" d="M437.392,334.75c-4.645-11.772-13.167-22.729-21.52-33.87c-9.009-12.018-18.597-23.914-28.342-35.771
				c-19.172-23.333-39.3-46.46-57.441-70.024c-14.675-19.061-28.762-38.419-50.862-55.528c-11.333-8.773-25.486-16.02-39.733-23.452
				c-13.69-7.141-28.26-13.972-46.084-18.097c-1.938-0.448-5.293,1.015-2.625,1.633c19.578,4.529,35.02,12.495,49.916,20.348
				c13.644,7.193,26.381,14.299,37.119,22.796c21.532,17.037,34.995,36.491,49.551,55.332
				c17.577,22.753,37.044,45.099,55.597,67.633c9.355,11.363,18.495,22.774,27.214,34.276c8.8,11.608,17.801,23.083,22.647,35.365
				C433.275,336.521,437.846,335.897,437.392,334.75L437.392,334.75z"/>
		</g>
	</g>
	<g>
		<g>
			<path fill="#253285" d="M440.286,334.967c-9.562-3.258-17.231-7.758-26.241-11.392c-1.655-0.668-5.616,0.556-3.505,1.408
				c9.011,3.634,16.68,8.135,26.241,11.392C438.521,336.967,442.492,335.718,440.286,334.967L440.286,334.967z"/>
		</g>
	</g>
	<g>
		<g>
			<path fill="#253285" d="M438.447,337.035c3.157-4.75,3.667-9.761,5.827-14.632c0.546-1.231-4.139-0.969-4.637,0.154
				c-2.088,4.707-2.532,9.561-5.581,14.149C433.162,338.054,437.732,338.112,438.447,337.035L438.447,337.035z"/>
		</g>
	</g>
</g>
<g id="appear:0_x2C_2">
	<g>
		<g>
			<path fill="#009C47" d="M464.483,330.298c-5.561-10.42-13.793-18.544-21.367-27.158c-9.136-10.39-17.6-21.578-26.398-32.316
				c-16.762-20.457-33.894-40.584-50.223-61.461c-14.892-19.042-27.921-39.503-35.4-63.332c-2.78-8.86-3.779-18.377-5.687-27.473
				c-1.753-8.353-3.987-17.499-9.449-23.987c-0.197-0.212-0.393-0.425-0.59-0.637c-0.566-0.611-2.282-0.145-2.188,0.872
				c0.456,4.944,0.836,9.859,0.787,14.823c-0.013,1.296,2.328,0.699,2.34-0.432c0.048-4.964-0.331-9.879-0.787-14.823
				c-0.729,0.291-1.459,0.581-2.188,0.872c5.839,6.305,7.983,15.791,9.806,24.216c1.975,9.126,3.052,18.517,5.687,27.473
				c6.772,23.016,19.769,43.086,33.862,61.457c16.037,20.905,33.181,40.824,49.843,61.125c8.941,10.893,17.684,21.998,26.713,32.802
				c7.875,9.424,17.017,17.732,22.969,28.884C462.777,332.258,465.012,331.29,464.483,330.298L464.483,330.298z"/>
		</g>
	</g>
	<g>
		<g>
			<path fill="#009C47" d="M313.623,96.646c4.734,2.893,10.234,3.697,14.774,7.048c0.761,0.562,2.761-0.758,1.697-1.543
				c-4.54-3.351-10.04-4.155-14.774-7.048C314.518,94.613,312.518,95.971,313.623,96.646L313.623,96.646z"/>
		</g>
	</g>
</g>
<g id="appear:0_x2C_3">
	<g>
		<g>
			<path fill="#009C47" d="M299.685,102.202c-19.629,17.16-28.254,37.399-41.312,56.285c-14.867,21.502-29.738,43.064-45.888,64.262
				c-16.096,21.126-34.322,41.886-57.074,60.943c-21.379,17.906-47.313,33.893-76.737,47.538c-2.088,0.968,1.086,1.76,2.626,1.045
				c28.538-13.234,53.599-28.598,74.817-45.76c22.882-18.508,40.985-38.908,57.116-59.566
				c16.662-21.337,31.066-43.222,46.518-64.848c14.076-19.702,22.682-41.242,43.246-59.22
				C304.378,101.671,300.69,101.324,299.685,102.202L299.685,102.202z"/>
		</g>
	</g>
	<g>
		<g>
			<path fill="#009C47" d="M79.835,332.308c3.93-4.002,7.019-8.152,9.037-12.601c0.333-0.733-3.615-0.385-3.936,0.319
				c-1.965,4.332-4.922,8.401-8.751,12.301C75.333,333.196,79.265,332.888,79.835,332.308L79.835,332.308z"/>
		</g>
	</g>
	<g>
		<g>
			<path fill="#009C47" d="M77.724,334.041c9.149-0.624,18.077-1.756,26.743-3.557c2.61-0.542,0.207-1.221-1.529-0.861
				c-7.983,1.659-16.22,2.66-24.642,3.234C76.431,332.985,74.976,334.229,77.724,334.041L77.724,334.041z"/>
		</g>
	</g>
</g>
<text transform="matrix(1 0 0 1 81.2193 88.6224)" font-family="'MyriadPro-Regular'" font-size="18">socket 1</text>
<text transform="matrix(1 0 0 1 358.6483 88.6226)" font-family="'MyriadPro-Regular'" font-size="18">socket 2</text>
<text transform="matrix(1 0 0 1 167.901 85.7168)" font-family="'MyriadPro-Regular'" font-size="18">thread 1</text>
<text transform="matrix(1 0 0 1 284.4577 85.7166)" font-family="'MyriadPro-Regular'" font-size="18">thread 2</text>
<g id="appear:1-3_x2C_6_x2C_9-">
	
		<path id="path3007" sodipodi:end="7.8539816" sodipodi:cy="201.14255" sodipodi:cx="-84.875679" sodipodi:open="true" sodipodi:start="1.5707964" sodipodi:type="arc" sodipodi:ry="55.651089" sodipodi:rx="55.651089" fill="#98CE21" d="
		M180.87,131.842c-8.32,0-15.065-6.745-15.065-15.065s6.745-15.065,15.065-15.065s15.065,6.745,15.065,15.065
		S189.19,131.842,180.87,131.842"/>
	
		<path id="path3797" inkscape:connector-curvature="0" sodipodi:nodetypes="cccscc" fill="none" stroke="#FFFFFF" stroke-width="0.7182" stroke-linecap="round" d="
		M175.535,112.896c0.886-9.288,13.656-7.072,12.169,1.247c-0.136,1.069-2.792,7.007-3.361,8.697
		c-0.698,1.77-1.578,2.415-2.829,3.009c-1.045,0.497-2.799,0.784-3.923-0.135c-0.701-0.499-0.82-1.645-1.4-3.696"/>
	
		<path id="path3011" inkscape:connector-curvature="0" sodipodi:nodetypes="ccccccccscscssssssssssssssscsscccccc" fill="#FFF6EA" d="
		M179.917,122.136c0.531-0.255,1.313-0.583,1.738-0.729c0.904-0.311,1.412-0.759,1.608-1.418c0.074-0.249,0.122-0.879,0.116-1.543
		c-0.088-3.248-1.717-4.337-3.474-4.572c-1.004-0.069-1.402-0.005-2.061,0.104c-0.171-0.745-0.161-1.026-0.115-1.376
		c0.193-1.444,1.022-2.586,2.333-3.211c0.664-0.317,0.796-0.346,1.593-0.346c1.068,0,1.668,0.19,2.455,0.782
		c0.313,0.236,0.721,0.655,0.905,0.933c0.347,0.524,0.743,1.636,0.743,2.088c0,0.504,0.51,0.687,0.678,0.244
		c0.066-0.174,0.051-0.455-0.05-0.941c-0.484-2.332-2.325-3.841-4.695-3.85c-1.333-0.005-2.214,0.346-3.219,1.287
		c-0.484,0.453-0.727,0.783-1.038,1.41c-0.377,0.761-0.408,0.885-0.444,1.76c-0.058,1.444,0.334,2.558,1.225,3.482
		c0.5,0.519,0.597,0.557,0.828,0.327c0.218-0.218,0.199-0.271-0.278-0.809c-0.79-0.889-0.788-1.041,0.015-1.171
		c0.548-0.088,1.026-0.042,1.815,0.177c0.824,0.229,1.503,0.924,1.792,1.834c0.395,1.246,0.342,3.193-0.101,3.668
		c-0.101,0.109-0.523,0.31-0.937,0.448s-1.188,0.468-1.719,0.734s-1.016,0.483-1.078,0.483c-0.184,0-0.205-0.214-0.068-0.676
		c0.27-0.905,0.074-2.048-0.447-2.606c-0.299-0.32-0.45-0.338-0.616-0.074c-0.074,0.117-0.03,0.291,0.173,0.693
		c0.287,0.568,0.29,0.639,0.097,2.326c-0.046,0.399-0.02,0.529,0.147,0.742C178.213,122.818,178.569,122.783,179.917,122.136
		L179.917,122.136z"/>
</g>
<g id="appear:1_x2C_4-">
	
		<path id="path3007_1_" sodipodi:end="7.8539816" sodipodi:cy="201.14255" sodipodi:cx="-84.875679" sodipodi:open="true" sodipodi:start="1.5707964" sodipodi:type="arc" sodipodi:ry="55.651089" sodipodi:rx="55.651089" fill="#98CE21" d="
		M344.583,128.055c-8.32,0-15.065-6.745-15.065-15.065s6.745-15.065,15.065-15.065s15.065,6.745,15.065,15.065
		S352.903,128.055,344.583,128.055"/>
	
		<path id="path3797_1_" inkscape:connector-curvature="0" sodipodi:nodetypes="cccscc" fill="none" stroke="#FFFFFF" stroke-width="0.7182" stroke-linecap="round" d="
		M339.249,109.108c0.886-9.288,13.656-7.072,12.169,1.247c-0.136,1.069-2.792,7.007-3.361,8.697
		c-0.698,1.77-1.578,2.415-2.829,3.009c-1.045,0.497-2.799,0.784-3.923-0.135c-0.701-0.499-0.82-1.645-1.4-3.696"/>
	
		<path id="path3011_1_" inkscape:connector-curvature="0" sodipodi:nodetypes="ccccccccscscssssssssssssssscsscccccc" fill="#FFF6EA" d="
		M343.63,118.349c0.531-0.255,1.313-0.583,1.738-0.729c0.904-0.311,1.412-0.759,1.608-1.418c0.074-0.249,0.122-0.879,0.116-1.543
		c-0.088-3.248-1.717-4.337-3.474-4.572c-1.004-0.069-1.402-0.005-2.061,0.104c-0.171-0.745-0.161-1.026-0.115-1.376
		c0.193-1.444,1.022-2.586,2.333-3.211c0.664-0.317,0.796-0.346,1.593-0.346c1.068,0,1.668,0.19,2.455,0.782
		c0.313,0.236,0.721,0.655,0.905,0.933c0.347,0.524,0.743,1.636,0.743,2.088c0,0.504,0.51,0.687,0.678,0.244
		c0.066-0.174,0.051-0.455-0.05-0.941c-0.484-2.332-2.325-3.841-4.695-3.85c-1.333-0.005-2.214,0.346-3.219,1.287
		c-0.484,0.453-0.727,0.783-1.038,1.41c-0.377,0.761-0.408,0.885-0.444,1.76c-0.058,1.444,0.334,2.558,1.225,3.482
		c0.5,0.519,0.597,0.557,0.828,0.327c0.218-0.218,0.199-0.271-0.278-0.809c-0.79-0.889-0.788-1.041,0.015-1.171
		c0.548-0.088,1.026-0.042,1.815,0.177c0.824,0.229,1.503,0.924,1.792,1.834c0.395,1.246,0.342,3.193-0.101,3.668
		c-0.101,0.109-0.523,0.31-0.937,0.448s-1.188,0.468-1.719,0.734c-0.531,0.265-1.016,0.483-1.078,0.483
		c-0.184,0-0.205-0.214-0.068-0.676c0.27-0.905,0.074-2.048-0.447-2.606c-0.299-0.32-0.45-0.338-0.616-0.074
		c-0.074,0.117-0.03,0.291,0.173,0.693c0.287,0.568,0.29,0.639,0.097,2.326c-0.046,0.399-0.02,0.529,0.147,0.742
		C341.926,119.03,342.282,118.996,343.63,118.349L343.63,118.349z"/>
</g>
</svg>
