<?xml version="1.0" encoding="utf-8"?>
<!-- Generator: Adobe Illustrator 17.0.0, SVG Export Plug-In . SVG Version: 6.00 Build 0)  -->
<!DOCTYPE svg PUBLIC "-//W3C//DTD SVG 1.1//EN" "http://www.w3.org/Graphics/SVG/1.1/DTD/svg11.dtd">
<svg version="1.1" id="Calque_1" xmlns="http://www.w3.org/2000/svg" xmlns:xlink="http://www.w3.org/1999/xlink" x="0px" y="0px"
	 width="500px" height="394.928px" viewBox="0 0 500 394.928" enable-background="new 0 0 500 394.928" xml:space="preserve">
<text transform="matrix(1 0 0 1 223.9131 36.2318)" font-family="'MyriadPro-Regular'" font-size="24">Serveur</text>
<text transform="matrix(1 0 0 1 17.9711 370.1739)" fill="#253285" font-family="'MyriadPro-Regular'" font-size="24">Alice</text>
<text transform="matrix(1 0 0 1 443.3334 370.1737)" fill="#00893C" font-family="'MyriadPro-Regular'" font-size="24">Bob</text>
<g>
	<g>
		<g>
			<path fill="#253285" d="M41.323,339.019c0.207-7.111,2.487-13.703,4.009-20.584c1.541-6.968,3.131-13.925,4.773-20.87
				c3.406-14.412,7.135-28.747,11.346-42.946c8.517-28.717,19.481-56.761,34.251-82.864
				c28.799-50.898,71.102-91.797,116.129-128.344c1.529-1.241-0.802-2.222-1.92-1.315c-43.711,35.479-84.031,74.737-113.377,123.18
				c-30.495,50.341-44.113,108.377-57.07,165.14c-0.664,2.911-0.989,5.846-1.075,8.825C38.344,340.755,41.285,340.32,41.323,339.019
				L41.323,339.019z"/>
		</g>
	</g>
	<g>
		<g>
			<path fill="#253285" d="M211.752,41.947c-4.553-0.666-8.783-0.017-13.056,1.634c-1.888,0.729-0.167,1.756,1.159,1.244
				c3.315-1.28,6.599-1.782,10.133-1.265C210.934,43.698,213.409,42.19,211.752,41.947L211.752,41.947z"/>
		</g>
	</g>
	<g>
		<g>
			<path fill="#253285" d="M209.4,45.031c0,3.382,0,6.763,0,10.145c0,1.548,2.939,1.129,2.939-0.208c0-3.382,0-6.763,0-10.145
				C212.339,43.275,209.4,43.695,209.4,45.031L209.4,45.031z"/>
		</g>
	</g>
</g>
<g>
	<g>
		<g>
			<path fill="#253285" d="M448.55,336.568c-2.95-14.227-8.363-27.468-13.668-40.932c-5.722-14.524-11.812-28.9-18.001-43.23
				c-12.177-28.198-24.961-56.148-36.483-84.625c-9.321-23.035-18.268-46.43-32.305-67.107
				c-7.198-10.602-16.187-19.361-25.236-28.342c-8.695-8.63-17.949-16.886-29.27-21.87c-1.231-0.542-3.362,1.227-1.667,1.973
				c12.435,5.473,22.243,15.101,31.704,24.591c8.666,8.693,16.756,17.281,23.576,27.549c13.676,20.59,22.227,44.1,31.472,66.87
				c11.164,27.497,23.528,54.503,35.312,81.736c5.942,13.732,11.747,27.523,17.285,41.423c5.589,14.029,11.306,27.896,14.384,42.739
				C445.935,338.708,448.838,337.955,448.55,336.568L448.55,336.568z"/>
		</g>
	</g>
	<g>
		<g>
			<path fill="#253285" d="M450.388,336.83c-6.073-3.937-10.944-9.376-16.667-13.768c-1.051-0.807-3.567,0.672-2.226,1.701
				c5.723,4.392,10.594,9.831,16.667,13.768C449.267,339.248,451.789,337.738,450.388,336.83L450.388,336.83z"/>
		</g>
	</g>
	<g>
		<g>
			<path fill="#253285" d="M449.22,339.33c2.005-5.74,2.329-11.796,3.701-17.683c0.347-1.488-2.629-1.171-2.945,0.186
				c-1.326,5.688-1.608,11.555-3.545,17.099C445.863,340.561,448.766,340.631,449.22,339.33L449.22,339.33z"/>
		</g>
	</g>
</g>
<g>
	<g>
		<g>
			<path fill="#009C47" d="M436.058,339.815c-5.659-12.236-14.869-22.181-23.213-32.606c-10.065-12.574-19.211-25.971-28.82-38.899
				c-18.307-24.63-37.108-48.929-54.833-73.984c-16.166-22.852-29.874-47.099-36.362-74.538c-2.412-10.202-2.554-20.955-3.864-31.33
				c-1.204-9.528-2.91-19.994-8.896-27.82c-0.218-0.258-0.436-0.516-0.654-0.774c-0.627-0.742-2.794-0.399-2.794,0.749
				c-0.003,5.579-0.097,11.118-0.725,16.667c-0.164,1.449,2.788,1.024,2.931-0.24c0.627-5.549,0.722-11.088,0.725-16.667
				c-0.931,0.25-1.863,0.499-2.794,0.749c6.471,7.661,8.028,18.497,9.31,28.113c1.389,10.416,1.643,21.036,3.864,31.33
				c5.71,26.456,19.424,50.262,34.682,72.28c17.363,25.056,36.202,49.123,54.404,73.568c9.767,13.117,19.266,26.45,29.152,39.476
				c8.622,11.362,18.933,21.607,24.989,34.703C433.733,341.831,436.596,340.98,436.058,339.815L436.058,339.815z"/>
		</g>
	</g>
	<g>
		<g>
			<path fill="#009C47" d="M276.954,62.717c5.5,3.729,12.182,5.199,17.391,9.42c0.873,0.708,3.487-0.561,2.267-1.55
				c-5.209-4.221-11.891-5.692-17.391-9.42C278.289,60.536,275.671,61.847,276.954,62.717L276.954,62.717z"/>
		</g>
	</g>
</g>
<rect x="432.609" y="339.13" opacity="0.1" fill="#00893C" width="60.145" height="45.652"/>
<g>
	<g>
		<g>
			<path fill="#009C47" d="M229.945,58.987c-14.394,21.972-20.719,47.885-30.294,72.066c-10.902,27.531-21.807,55.139-33.65,82.28
				c-11.803,27.049-25.168,53.63-41.852,78.03c-15.677,22.927-34.695,43.396-56.271,60.867c-1.531,1.239,0.796,2.253,1.926,1.338
				c20.927-16.945,39.304-36.617,54.863-58.591c16.779-23.697,30.054-49.817,41.883-76.268
				c12.218-27.32,22.781-55.341,34.112-83.031c10.322-25.226,16.633-52.806,31.712-75.824
				C233.387,58.307,230.682,57.862,229.945,58.987L229.945,58.987z"/>
		</g>
	</g>
	<g>
		<g>
			<path fill="#009C47" d="M68.729,353.611c2.882-5.124,5.147-10.438,6.627-16.134c0.244-0.939-2.651-0.493-2.886,0.408
				c-1.441,5.547-3.609,10.757-6.417,15.75C65.428,354.748,68.311,354.354,68.729,353.611L68.729,353.611z"/>
		</g>
	</g>
	<g>
		<g>
			<path fill="#009C47" d="M67.181,355.83c6.709-0.799,13.256-2.248,19.611-4.554c1.914-0.694,0.152-1.564-1.121-1.102
				c-5.854,2.124-11.894,3.406-18.07,4.141C66.233,354.478,65.166,356.07,67.181,355.83L67.181,355.83z"/>
		</g>
	</g>
</g>
<rect x="9.783" y="339.13" opacity="0.1" fill="#253285" width="64.13" height="45.652"/>
<rect x="205.072" y="5.797" opacity="0.1" width="113.043" height="45.652"/>
<text transform="matrix(1 0 0 1 95.6523 65.942)" font-family="'MyriadPro-Regular'" font-size="24">socket 1</text>
<text transform="matrix(1 0 0 1 326.174 64.4928)" font-family="'MyriadPro-Regular'" font-size="24">socket 2</text>
</svg>
